Chocolate
…
We are using a 95% Confidence interval meaning in order for the test to be signficant the P below our alpha of .05

Now before the test can begin. A few things need to happen. First off it is increbily difficult to identify which variable is the one being significnat simiple using a Test of Variance like ANOVA or the Kruskal Wallace Test, if We are using all the samples included. When one is testing from among 200 samples its diffuclt to tell which of those 200 and how many are different this test appears to operate best when it is being used among a smaller collection of samples. Both of these tests do not provide the information of which is different just THAT one of them is.

In mind it seems more effective to pick those that could be reasonablly compared otherwise. Ideally one with a large sample size though this test is not dependant on having large sample sizes, in deed is the test used when samples are not large enough traditionall. However good practice for comparibilty in other tests has created a habit in me of trying to find similar sized samples whenever possible. Similar in size does not mean similalry comparable however it is more habit I have fallen into.

Many other factors exisit in creating a comparision but the purpose of this is to determine if a signifcant difference exisits between the quality of the Cocao from among several points of Origin of similar size. The size is mostly for reasonable comparision. To know that the sample sizes were roughly the same though again this test is largely uneffected by sample sizes over the base point.

To pick the samples to be used a comparison of size was my approach. To look for identify samples of similar sizes a summarize command was sufficent.

Table of the Sample Sizes

choc %>% group_by(BroadOrig) %>% summarise(DataPoints=n()) %>% filter(DataPoints >20)

## # A tibble: 21 x 2
##    BroadOrig          DataPoints
##    <chr>                   <int>
##  1 Belize                     49
##  2 Bolivia                    57
##  3 Brazil                     58
##  4 Colombia                   40
##  5 Costa Rica                 38
##  6 Domincan Republic          25
##  7 Dominican Republic        141
##  8 Ecuador                   193
##  9 Ghana                      33
## 10 Guatemala                  28
## #  with 11 more rows
…
